{
    "file": "./data/1.wav",
    "text": "Open ELN form."
}
{
    "file": "./data/2.wav",
    "text": "New ELN form."
}
{
    "file": "./data/5.wav",
    "text": "Open expriment form."
}
{
    "file": "./data/6.wav",
    "text": "New expriment form."
}
{
    "file": "./data/7.wav",
    "text": "Open ECM form."
}
{
    "file": "./data/8.wav",
    "text": "New ECM form."
}
{
    "file": "./data/9.wav",
    "text": "Project ID is"
}
{
    "file": "./data/11.wav",
    "text": "Project Name is POLYemer restructure."
}
{
    "file": "./data/12.wav",
    "text": "Experiment is POLYemer restructure is very important for all chemial product."
}
{
    "file": "./data/13.wav",
    "text": "Conclusion is POLYemer restructure is successful for product of all chemical products."
}
{
    "file": "./data/14.wav",
    "text": "Next"
}
{
    "file": "./data/15.wav",
    "text": "Previous"
}
{
    "file": "./data/16.wav",
    "text": "Step one"
}
{
    "file": "./data/17.wav",
    "text": "Step two"
}
{
    "file": "./data/18.wav",
    "text": "Step three"
}
{
    "file": "./data/19.wav",
    "text": "Step four"
}
{
    "file": "./data/20.wav",
    "text": "Save"
}